Correlation
…
## The data frame

.pull-left[
1. Sketch the data frame that can answer this question.
  - Dimensions
  - Unit of observation
  - Column names
  - Range of values
]
--
.pull-right[

```
## # A tibble: 51 × 3
##    State                Graduates Poverty
##    <chr>                    <dbl>   <dbl>
##  1 Alabama                   79.9    14.6
##  2 Alaska                    90.6     8.3
##  3 Arizona                   83.8    13.3
##  4 Arkansas                  80.9    18  
##  5 California                81.1    12.8
##  6 Colorado                  88.7     9.4
##  7 Connecticut               87.5     7.8
##  8 Delaware                  88.7     8.1
##  9 District of Columbia      86      16.8
## 10 Florida                   84.7    12.1
## # … with 41 more rows
```
…
