Adding Complexity
…
---
## Bootstrap CIs in R, cont.

```r
books %>%
  specify(weight ~ volume + cover) %>%
  generate(reps = 500, type = "bootstrap") %>%
* fit()
```

--

```
## # A tibble: 1,500 × 3
## # Groups:   replicate [500]
##    replicate term      estimate
##        <int> <chr>        <dbl>
##  1         1 intercept  170.   
##  2         1 volume       0.745
##  3         1 coverpb   -195.   
##  4         2 intercept  235.   
##  5         2 volume       0.682
##  6         2 coverpb   -223.   
##  7         3 intercept  231.   
##  8         3 volume       0.705
##  9         3 coverpb   -215.   
## 10         4 intercept  233.   
## # … with 1,490 more rows
```
…
