Inference for Regression
…
- Confidence Intervals
- Hypothesis Tests

---
## Unemployment and elections
--

```r
ump
```

--

```
## # A tibble: 29 × 5
##     year potus                     party      unemp change
##    <dbl> <chr>                     <fct>      <dbl>  <dbl>
##  1  1899 William McKinley          Republican 11.6   -9.22
##  2  1903 Theodore Roosevelt        Republican  4.3   -4.28
##  3  1907 Theodore Roosevelt        Republican  3.29 -12.3 
##  4  1911 William Howard Taft       Republican  5.86 -26.6 
##  5  1915 Woodrow Wilson            Democratic  6.63 -21.0 
##  6  1919 Woodrow Wilson            Democratic  3.38 -10.3 
##  7  1923 Calvin Coolidge           Republican  6.93 -25.5 
##  8  1927 Calvin Coolidge           Republican  4.02  -3.64
##  9  1931 Herbert Clark Hoover      Republican  8.94 -19.3 
## 10  1935 Franklin Delano Roosevelt Democratic 21.3    2.88
## # … with 19 more rows
```
…
.task[
Take a moment to sketch out the infer pipeline that will results in a collection of 500 slopes that would might see in a world where the null hypothesis was true.

Turn to a neighbor and discuss your pipeline. I will ask for a pair to share.
]

--

```r
ump
```

```
## # A tibble: 27 × 5
##     year potus                     party      unemp change
##    <dbl> <chr>                     <fct>      <dbl>  <dbl>
##  1  1899 William McKinley          Republican 11.6   -9.22
##  2  1903 Theodore Roosevelt        Republican  4.3   -4.28
##  3  1907 Theodore Roosevelt        Republican  3.29 -12.3 
##  4  1911 William Howard Taft       Republican  5.86 -26.6 
##  5  1915 Woodrow Wilson            Democratic  6.63 -21.0 
##  6  1919 Woodrow Wilson            Democratic  3.38 -10.3 
##  7  1923 Calvin Coolidge           Republican  6.93 -25.5 
##  8  1927 Calvin Coolidge           Republican  4.02  -3.64
##  9  1931 Herbert Clark Hoover      Republican  8.94 -19.3 
## 10  1943 Franklin Delano Roosevelt Democratic  4.7  -16.9 
## # … with 17 more rows
```
…
.pull-left[

```r
library(infer)
ump %>%
  specify(change ~ unemp) %>%
  hypothesize(null = "independence") %>%
  generate(1, type = "permute")
```

```
## Response: change (numeric)
## Explanatory: unemp (numeric)
## Null Hypothesis: independence
## # A tibble: 27 × 3
## # Groups:   replicate [1]
##    change unemp replicate
##     <dbl> <dbl>     <int>
##  1 -19.3  11.6          1
##  2 -10.3   4.3          1
##  3 -24.9   3.29         1
##  4  -5.14  5.86         1
##  5  -8.14  6.63         1
##  6  -4.57  3.38         1
##  7   2.43  6.93         1
##  8 -26.6   4.02         1
##  9  -6.25  8.94         1
## 10 -12.9   4.7          1
## # … with 17 more rows
```
…
.pull-left[

```r
library(infer)
ump %>%
  specify(change ~ unemp) %>%
  hypothesize(null = "independence") %>%
  generate(1, type = "permute")
```

```
## Response: change (numeric)
## Explanatory: unemp (numeric)
## Null Hypothesis: independence
## # A tibble: 27 × 3
## # Groups:   replicate [1]
##    change unemp replicate
##     <dbl> <dbl>     <int>
##  1 -24.2  11.6          1
##  2  -2.75  4.3          1
##  3  -1.07  3.29         1
##  4  -9.22  5.86         1
##  5 -20.9   6.63         1
##  6  -4.57  3.38         1
##  7 -21.0   6.93         1
##  8  -5.14  4.02         1
##  9 -13.5   8.94         1
## 10   3.62  4.7          1
## # … with 17 more rows
```
…
.pull-right[

```r
shuffle2 <- ump %>%
  specify(change ~ unemp) %>%
  hypothesize(null = "independence") %>%
  generate(1, type = "permute")
shuffle2
```

```
## Response: change (numeric)
## Explanatory: unemp (numeric)
## Null Hypothesis: independence
## # A tibble: 27 × 3
## # Groups:   replicate [1]
##    change unemp replicate
##     <dbl> <dbl>     <int>
##  1 -25    11.6          1
##  2   2.43  4.3          1
##  3  -3.64  3.29         1
##  4 -10.3   5.86         1
##  5 -22.3   6.63         1
##  6 -16.3   3.38         1
##  7 -19.3   6.93         1
##  8 -20.9   4.02         1
##  9  -9.22  8.94         1
## 10  -6.25  4.7          1
## # … with 17 more rows
```
…
--

```
## Response: change (numeric)
## Explanatory: unemp (numeric)
## Null Hypothesis: independence
## # A tibble: 500 × 2
##    replicate    stat
##        <int>   <dbl>
##  1         1  1.66  
##  2         2  1.20  
##  3         3 -0.177 
##  4         4  0.854 
##  5         5  0.0957
##  6         6 -0.292 
##  7         7  0.949 
##  8         8 -0.597 
##  9         9 -0.799 
## 10        10  0.320 
## # … with 490 more rows
```
…
