Bayesian Estimation
…
<img src="figs/abc7.png" width="620" style="display: block; margin: auto;" />

---
class:small
## Full simulation 
--

.pull-left[

```r
sock_sim
```

```
## # A tibble: 100,000 × 4
##    singletons pairs n_socks prop_pairs
##         <dbl> <dbl>   <dbl>      <dbl>
##  1          3     4      14      0.974
##  2          9     1      30      0.885
##  3          5     3      19      0.883
##  4         11     0      74      0.892
##  5          7     2      20      0.769
##  6          5     3      26      0.921
##  7         11     0      41      0.925
##  8          5     3      28      0.928
##  9          3     4      29      0.865
## 10          7     2      41      0.892
## # … with 99,990 more rows
```
]

--

.pull-right[

```r
sock_sim %>%
  filter(singletons == 11, pairs == 0)
```

```
## # A tibble: 11,391 × 4
##    singletons pairs n_socks prop_pairs
##         <dbl> <dbl>   <dbl>      <dbl>
##  1         11     0      74      0.892
##  2         11     0      41      0.925
##  3         11     0      49      0.934
##  4         11     0      39      0.872
##  5         11     0      95      0.903
##  6         11     0      85      0.701
##  7         11     0      56      0.890
##  8         11     0      23      0.854
##  9         11     0      29      0.917
## 10         11     0      36      0.820
## # … with 11,381 more rows
```
…
