Logistic Regression
…
<img src="figs/spam.png" width="530" style="display: block; margin: auto;" />

> Email spam, also referred to as junk email or simply spam, is unsolicited messages sent in bulk by email (spamming). The name comes from a Monty Python sketch in which the name of the canned pork product Spam is ubiquitous, unavoidable, and repetitive.

.cite[source: freezelight/flickr, Wikipedia]
---
## The data
--

```r
email
```

```
## # A tibble: 3,921 × 21
##    spam  to_multiple from     cc sent_email time                image attach
##    <fct> <fct>       <fct> <int> <fct>      <dttm>              <dbl>  <dbl>
##  1 0     0           1         0 0          2011-12-31 22:16:41     0      0
##  2 0     0           1         0 0          2011-12-31 23:03:59     0      0
##  3 0     0           1         0 0          2012-01-01 08:00:32     0      0
##  4 0     0           1         0 0          2012-01-01 01:09:49     0      0
##  5 0     0           1         0 0          2012-01-01 02:00:01     0      0
##  6 0     0           1         0 0          2012-01-01 02:04:46     0      0
##  7 0     1           1         0 1          2012-01-01 09:55:06     0      0
##  8 0     1           1         1 1          2012-01-01 10:45:21     1      1
##  9 0     0           1         0 0          2012-01-01 13:08:59     0      0
## 10 0     0           1         0 0          2012-01-01 10:12:00     0      0
## # … with 3,911 more rows, and 13 more variables: dollar <dbl>, winner <fct>,
## #   inherit <dbl>, viagra <dbl>, password <dbl>, num_char <dbl>,
## #   line_breaks <int>, format <fct>, re_subj <fct>, exclaim_subj <dbl>,
## #   urgent_subj <fct>, exclaim_mess <dbl>, number <fct>
```
…
