Logistic Regression
…
$$
\texttt{if P(y = 1) > threshold, then y-hat = 1}
$$

--

```r
tibble(y = email$spam,
       p_y_is_1 = fitted(m2)) %>%
  mutate(y_pred = p_y_is_1 > .5)
```
--

```
## # A tibble: 3,921 × 3
##        y p_y_is_1 y_pred
##    <dbl>    <dbl> <lgl> 
##  1     0   0.0507 FALSE 
##  2     0   0.0528 FALSE 
##  3     0   0.0879 FALSE 
##  4     0   0.0468 FALSE 
##  5     0   0.153  FALSE 
##  6     0   0.162  FALSE 
##  7     0   0.0122 FALSE 
##  8     0   0.0118 FALSE 
##  9     0   0.0990 FALSE 
## 10     0   0.106  FALSE 
## # … with 3,911 more rows
```
…
