Fundamental Distributions
…
.pull-left[

```r
flights %>%
  group_by(tailnum) %>%
* summarize(avg_delay = mean(arr_delay, na.rm = TRUE),
*           avg_dist = mean(distance, na.rm = TRUE),
            n = n()) %>%
  filter(n > 20,
         avg_dist < 2000)
```

```
## # A tibble: 1,708 × 4
##    tailnum avg_delay avg_dist     n
##    <chr>       <dbl>    <dbl> <int>
##  1 304NV       1.15      639.    27
##  2 315NV       4.19      542.    26
##  3 318NV      -9.72      580     25
##  4 323NV      -8.83      639.    24
##  5 N101DU    -10.6       649.    37
##  6 N102DU     -2.57      643.    68
##  7 N103DU      4.33      634.    52
##  8 N103SY    -10.4       753.   125
##  9 N104DU      0.788     624.    52
## 10 N105DU     -8.55      636.    45
## # … with 1,698 more rows
```
…
.pull-right[

```r
flights %>%
* drop_na(arr_delay, distance) %>%
  group_by(tailnum) %>%
  summarize(avg_delay = mean(arr_delay),
            avg_dist = mean(distance),
            n = n()) %>%
  filter(n > 20,
         avg_dist < 2000)
```

```
## # A tibble: 1,680 × 4
##    tailnum avg_delay avg_dist     n
##    <chr>       <dbl>    <dbl> <int>
##  1 304NV       1.15      639.    27
##  2 315NV       4.19      542.    26
##  3 318NV      -9.72      580     25
##  4 323NV      -8.83      639.    24
##  5 N101DU    -10.6       649.    37
##  6 N102DU     -2.57      642.    67
##  7 N103DU      4.33      634.    52
##  8 N103SY    -10.4       768.   114
##  9 N104DU      0.788     624.    52
## 10 N105DU     -8.55      635.    44
## # … with 1,670 more rows
```
…
.pull-left[

```r
flights %>%
  group_by(tailnum) %>%
* summarize(avg_delay = mean(arr_delay, na.rm = TRUE),
*           avg_dist = mean(distance, na.rm = TRUE),
            n = n()) %>%
  filter(n > 20,
         avg_dist < 2000) %>%
  arrange(desc(n))
```

```
## # A tibble: 1,708 × 4
##    tailnum avg_delay avg_dist     n
##    <chr>       <dbl>    <dbl> <int>
##  1 <NA>       NaN       1026.  4454
##  2 N184SY     -12.5      498.   293
##  3 N400SY      -9.57     496.   288
##  4 N192SY      -7.86     494.   286
##  5 N179SY      -9.48     498.   283
##  6 N191SY     -10.4      493.   266
##  7 N402SY     -11.6      509.   258
##  8 N174SY      -7.75     514.   256
##  9 N183SY     -13.1      508.   256
## 10 N187SY     -11.1      477.   255
## # … with 1,698 more rows
```
…
```r
flights %>%
* drop_na(arr_delay, distance) %>%
  group_by(tailnum) %>%
  summarize(avg_delay = mean(arr_delay),
            avg_dist = mean(distance),
            n = n()) %>%
  filter(n > 20,
         avg_dist < 2000) %>%
  arrange(desc(n))
```

```
## # A tibble: 1,680 × 4
##    tailnum avg_delay avg_dist     n
##    <chr>       <dbl>    <dbl> <int>
##  1 N184SY     -12.5      499.   291
##  2 N400SY      -9.57     496.   288
##  3 N192SY      -7.86     495.   283
##  4 N179SY      -9.48     496.   277
##  5 N191SY     -10.4      495.   260
##  6 N402SY     -11.6      506.   255
##  7 N183SY     -13.1      510.   253
##  8 N187SY     -11.1      477.   253
##  9 N174SY      -7.75     514.   252
## 10 N186SY     -11.1      538.   245
## # … with 1,670 more rows
```
…
```r
flights %>%
  drop_na(tailnum) %>%
  group_by(tailnum) %>%
* summarize(avg_delay = mean(arr_delay, na.rm = TRUE),
*           avg_dist = mean(distance, na.rm = TRUE),
            n = n()) %>%
  filter(n > 20,
         avg_dist < 2000) %>%
  arrange(desc(n))
```

```
## # A tibble: 1,707 × 4
##    tailnum avg_delay avg_dist     n
##    <chr>       <dbl>    <dbl> <int>
##  1 N184SY     -12.5      498.   293
##  2 N400SY      -9.57     496.   288
##  3 N192SY      -7.86     494.   286
##  4 N179SY      -9.48     498.   283
##  5 N191SY     -10.4      493.   266
##  6 N402SY     -11.6      509.   258
##  7 N174SY      -7.75     514.   256
##  8 N183SY     -13.1      508.   256
##  9 N187SY     -11.1      477.   255
## 10 N186SY     -11.1      536.   250
## # … with 1,697 more rows
```
…
```r
flights %>%
* drop_na(arr_delay, distance) %>%
  group_by(tailnum) %>%
  summarize(avg_delay = mean(arr_delay),
            avg_dist = mean(distance),
            n = n()) %>%
  filter(n > 20,
         avg_dist < 2000) %>%
  arrange(desc(n))
```

```
## # A tibble: 1,680 × 4
##    tailnum avg_delay avg_dist     n
##    <chr>       <dbl>    <dbl> <int>
##  1 N184SY     -12.5      499.   291
##  2 N400SY      -9.57     496.   288
##  3 N192SY      -7.86     495.   283
##  4 N179SY      -9.48     496.   277
##  5 N191SY     -10.4      495.   260
##  6 N402SY     -11.6      506.   255
##  7 N183SY     -13.1      510.   253
##  8 N187SY     -11.1      477.   253
##  9 N174SY      -7.75     514.   252
## 10 N186SY     -11.1      538.   245
## # … with 1,670 more rows
```
…
