A Framework for Classical Inference
…
The distribution of `\(Y\)` should be the same across values of `\(X\)` and `\(p_M - p_F = 0\)`

---
## Finding the Null Distribution: Permutation

We can shuffle or **permute** the data in one of the variables to generate the kind of data we would expect under a null hypothesis of _independence_ between the two variables.

--

.pull-left[
_Observed_

```
## # A tibble: 48 × 3
##       id gender decision   
##    <int> <fct>  <fct>      
##  1     1 female promote    
##  2     2 male   promote    
##  3     3 male   promote    
##  4     4 female not promote
##  5     5 male   promote    
##  6     6 female promote    
##  7     7 female promote    
##  8     8 female not promote
##  9     9 female not promote
## 10    10 female not promote
## # … with 38 more rows
```
]

--

.pull-right[
_Permutation 1_

```
## # A tibble: 48 × 3
##       id gender decision   
##    <int> <fct>  <fct>      
##  1     1 female not promote
##  2     2 male   promote    
##  3     3 male   promote    
##  4     4 female promote    
##  5     5 male   promote    
##  6     6 female promote    
##  7     7 female promote    
##  8     8 female promote    
##  9     9 female promote    
## 10    10 female promote    
## # … with 38 more rows
```
]

---
## Finding the Null Distribution: Permutation

We can shuffle or **permute** the data in one of the variables to generate the kind of data we would expect under a null hypothesis of _independence_ between the two variables.

.pull-left[
_Observed_

```
## # A tibble: 48 × 3
##       id gender decision   
##    <int> <fct>  <fct>      
##  1     1 female promote    
##  2     2 male   promote    
##  3     3 male   promote    
##  4     4 female not promote
##  5     5 male   promote    
##  6     6 female promote    
##  7     7 female promote    
##  8     8 female not promote
##  9     9 female not promote
## 10    10 female not promote
## # … with 38 more rows
```
]

.pull-right[
_Permutation 2_

```
## # A tibble: 48 × 3
##       id gender decision   
##    <int> <fct>  <fct>      
##  1     1 female not promote
##  2     2 male   promote    
##  3     3 male   promote    
##  4     4 female promote    
##  5     5 male   not promote
##  6     6 female promote    
##  7     7 female promote    
##  8     8 female promote    
##  9     9 female not promote
## 10    10 female promote    
## # … with 38 more rows
```
]

---
## Finding the Null Distribution: Permutation

We can shuffle or **permute** the data in one of the variables to generate the kind of data we would expect under a null hypothesis of _independence_ between the two variables.

.pull-left[
_Observed_

```
## # A tibble: 48 × 3
##       id gender decision   
##    <int> <fct>  <fct>      
##  1     1 female promote    
##  2     2 male   promote    
##  3     3 male   promote    
##  4     4 female not promote
##  5     5 male   promote    
##  6     6 female promote    
##  7     7 female promote    
##  8     8 female not promote
##  9     9 female not promote
## 10    10 female not promote
## # … with 38 more rows
```
]

.pull-right[
_Permutation 3_

```
## # A tibble: 48 × 3
##       id gender decision   
##    <int> <fct>  <fct>      
##  1     1 female promote    
##  2     2 male   promote    
##  3     3 male   promote    
##  4     4 female promote    
##  5     5 male   not promote
##  6     6 female promote    
##  7     7 female promote    
##  8     8 female not promote
##  9     9 female promote    
## 10    10 female promote    
## # … with 38 more rows
```
…
Discuss with your neighbors and prepare to be called on.
]

---
## Finding the Null Distribution: Taking Draws

If a null hypothesis concerns a particular value that a proportion should take (a _point_ null), then you can generate data under that null hypothesis by taking **draws** from that distribution.

.pull-left[
_Observed_

```
## # A tibble: 75 × 2
##       id response    
##    <int> <fct>       
##  1     1 do not favor
##  2     2 do not favor
##  3     3 do not favor
##  4     4 favor       
##  5     5 do not favor
##  6     6 favor       
##  7     7 favor       
##  8     8 favor       
##  9     9 do not favor
## 10    10 favor       
## # … with 65 more rows
```
]

--

.pull-right[
_Draw 1_

```
## Response: response (factor)
## Null Hypothesis: point
## # A tibble: 75 × 2
## # Groups:   replicate [1]
##    response     replicate
##    <fct>        <fct>    
##  1 favor        1        
##  2 do not favor 1        
##  3 favor        1        
##  4 do not favor 1        
##  5 favor        1        
##  6 do not favor 1        
##  7 do not favor 1        
##  8 do not favor 1        
##  9 do not favor 1        
## 10 favor        1        
## # … with 65 more rows
```
]

---
## Finding the Null Distribution: Taking Draws

If a null hypothesis concerns a particular value that a proportion should take (a _point_ null), then you can generate data under that null hypothesis by taking **draws** from that distribution.

.pull-left[
_Observed_

```
## # A tibble: 75 × 2
##       id response    
##    <int> <fct>       
##  1     1 do not favor
##  2     2 do not favor
##  3     3 do not favor
##  4     4 favor       
##  5     5 do not favor
##  6     6 favor       
##  7     7 favor       
##  8     8 favor       
##  9     9 do not favor
## 10    10 favor       
## # … with 65 more rows
```
]

.pull-right[
_Draw 2_

```
## Response: response (factor)
## Null Hypothesis: point
## # A tibble: 75 × 2
## # Groups:   replicate [1]
##    response     replicate
##    <fct>        <fct>    
##  1 favor        1        
##  2 favor        1        
##  3 do not favor 1        
##  4 favor        1        
##  5 do not favor 1        
##  6 do not favor 1        
##  7 do not favor 1        
##  8 favor        1        
##  9 do not favor 1        
## 10 do not favor 1        
## # … with 65 more rows
```
]

---
## Finding the Null Distribution: Taking Draws

If a null hypothesis concerns a particular value that a proportion should take (a _point_ null), then you can generate data under that null hypothesis by taking **draws** from that distribution.

.pull-left[
_Observed_

```
## # A tibble: 75 × 2
##       id response    
##    <int> <fct>       
##  1     1 do not favor
##  2     2 do not favor
##  3     3 do not favor
##  4     4 favor       
##  5     5 do not favor
##  6     6 favor       
##  7     7 favor       
##  8     8 favor       
##  9     9 do not favor
## 10    10 favor       
## # … with 65 more rows
```
]

.pull-right[
_Draw 3_

```
## Response: response (factor)
## Null Hypothesis: point
## # A tibble: 75 × 2
## # Groups:   replicate [1]
##    response     replicate
##    <fct>        <fct>    
##  1 do not favor 1        
##  2 favor        1        
##  3 favor        1        
##  4 do not favor 1        
##  5 favor        1        
##  6 favor        1        
##  7 favor        1        
##  8 favor        1        
##  9 favor        1        
## 10 favor        1        
## # … with 65 more rows
```
…
