Confidence Intervals, cont.
…
```r
pew2 %>%
  specify(response = lazy, 
          explanatory = year, 
          success = "yes") %>%
* generate(reps = 1,
*          type = "bootstrap")
```

--

```
## Response: lazy (factor)
## Explanatory: year (factor)
## # A tibble: 9,894 × 3
## # Groups:   replicate [1]
##    replicate lazy  year 
##        <int> <fct> <fct>
##  1         1 no    2016 
##  2         1 no    2019 
##  3         1 yes   2016 
##  4         1 no    2019 
##  5         1 no    2019 
##  6         1 no    2016 
##  7         1 no    2019 
##  8         1 no    2019 
##  9         1 no    2019 
## 10         1 no    2016 
## # … with 9,884 more rows
```
…
```r
pew2 %>%
  specify(response = lazy, 
          explanatory = year, 
          success = "yes") %>%
* generate(reps = 1,
*          type = "bootstrap")
```

--

```
## Response: lazy (factor)
## Explanatory: year (factor)
## # A tibble: 9,894 × 3
## # Groups:   replicate [1]
##    replicate lazy  year 
##        <int> <fct> <fct>
##  1         1 no    2016 
##  2         1 yes   2019 
##  3         1 no    2019 
##  4         1 no    2019 
##  5         1 no    2019 
##  6         1 no    2019 
##  7         1 no    2019 
##  8         1 no    2016 
##  9         1 yes   2016 
## 10         1 no    2016 
## # … with 9,884 more rows
```
…
--

```
## Response: lazy (factor)
## Explanatory: year (factor)
## # A tibble: 500 × 2
##    replicate   stat
##        <int>  <dbl>
##  1         1 0.0215
##  2         2 0.0271
##  3         3 0.0226
##  4         4 0.0155
##  5         5 0.0320
##  6         6 0.0273
##  7         7 0.0189
##  8         8 0.0210
##  9         9 0.0196
## 10        10 0.0137
## # … with 490 more rows
```
…
