Data Privacy
…
--
1. Privacy requires a good definition.

--
2. Differential privacy adds noise to keep amount learned about an individual within provable bounds.

--
3. There is a necessary balance with sensitive data between provide enough signal to be useful, but enough noise to ensure privacy.

---
## People's Park Survey

```
## # A tibble: 1,658 × 41
##       Q1 Q7_1  Q7_2  Q7_3  Q7_4  Q7_5  Q7_6  Q7_7     Q8  Q9_1  Q9_2  Q9_3  Q9_4
##    <dbl> <lgl> <lgl> <lgl> <lgl> <lgl> <lgl> <lgl> <dbl> <dbl> <dbl> <dbl> <dbl>
##  1     4 FALSE FALSE FALSE FALSE FALSE FALSE TRUE      5     4     3     1     5
##  2     3 FALSE TRUE  FALSE FALSE FALSE FALSE FALSE     5     1     3     4     6
##  3     5 NA    NA    NA    NA    NA    NA    NA        5     4     2     1     5
##  4     3 TRUE  FALSE TRUE  FALSE TRUE  FALSE FALSE     4     1     2     3     4
##  5     5 NA    NA    NA    NA    NA    NA    NA        2     1     2     3     5
##  6     5 NA    NA    NA    NA    NA    NA    NA        4     1     2     3     4
##  7     5 NA    NA    NA    NA    NA    NA    NA        5     2     1     2     6
##  8     3 TRUE  FALSE FALSE FALSE TRUE  FALSE FALSE     5     6     1     3     5
##  9     5 NA    NA    NA    NA    NA    NA    NA        4     3     4     2     5
## 10     2 TRUE  TRUE  TRUE  FALSE TRUE  FALSE FALSE     5     2     1     3     4
## # … with 1,648 more rows, and 28 more variables: Q9_5 <dbl>, Q9_6 <dbl>,
## #   Q10 <dbl>, Q11_1 <lgl>, Q11_2 <lgl>, Q11_3 <lgl>, Q11_4 <lgl>, Q11_5 <lgl>,
## #   Q11_6 <lgl>, Q11_7 <lgl>, Q15_1 <dbl>, Q17 <dbl>, Q18 <dbl>, Q20_1 <lgl>,
## #   Q20_2 <lgl>, Q20_3 <lgl>, Q20_4 <lgl>, Q20_5 <lgl>, Q20_6 <lgl>,
## #   Q20_7 <lgl>, Q21 <dbl>, Q22_1 <lgl>, Q22_2 <lgl>, Q22_3 <lgl>, Q22_4 <lgl>,
## #   Q22_5 <lgl>, Q22_6 <lgl>, Q22_7 <lgl>
```
…
