Grammar of Graphics II
…
---
##  Counts by Country

```r
un_vote %>%
* count(country)
```

--

```
## # A tibble: 197 × 2
##    country               n
##    <chr>             <int>
##  1 Afghanistan        5289
##  2 Albania            4206
##  3 Algeria            5290
##  4 Andorra            2532
##  5 Angola             3963
##  6 Antigua & Barbuda  3590
##  7 Argentina          5686
##  8 Armenia            2593
##  9 Australia          5737
## 10 Austria            5514
## # … with 187 more rows
```

---
##  Counts by Country

```r
un_vote %>%
  count(country) %>%
* arrange(desc(n))
```

--

```
## # A tibble: 197 × 2
##    country         n
##    <chr>       <int>
##  1 Denmark      5738
##  2 Australia    5737
##  3 Netherlands  5733
##  4 Sweden       5733
##  5 Canada       5732
##  6 Norway       5725
##  7 Belgium      5724
##  8 India        5721
##  9 New Zealand  5721
## 10 Russia       5721
## # … with 187 more rows
```

---
##  Counts by Country

```r
un_vote %>%
  count(country) %>%
* arrange(n)
```

--

```
## # A tibble: 197 × 2
##    country          n
##    <chr>        <int>
##  1 South Sudan    437
##  2 Kiribati       574
##  3 Taiwan         648
##  4 Nauru         1200
##  5 Tuvalu        1295
##  6 Montenegro    1451
##  7 Timor-Leste   1516
##  8 Palau         1557
##  9 Tonga         1563
## 10 Turkmenistan  1739
## # … with 187 more rows
```
…
