Benford’s Law and Elections
…
---
## Generating one data set with `infer`, cont.

--

```r
iran %>%
* specify(response = digit)
```

```
## Response: digit (numeric)
## # A tibble: 366 × 1
##    digit
##    <dbl>
##  1     3
##  2     3
##  3     4
##  4     3
##  5     3
##  6     4
##  7     2
##  8     1
##  9     5
## 10     3
## # … with 356 more rows
```

---
## Generating one data set with `infer`, cont.

```r
iran %>%
  specify(response = digit) %>%
* hypothesize(null = "point",
*             p = ben_prop)
```

```
## Response: digit (numeric)
## Null Hypothesis: point
## # A tibble: 366 × 1
##    digit
##    <dbl>
##  1     3
##  2     3
##  3     4
##  4     3
##  5     3
##  6     4
##  7     2
##  8     1
##  9     5
## 10     3
## # … with 356 more rows
```
---
## Generating one data set with `infer`, cont.

```r
iran %>%
  specify(response = digit) %>%
  hypothesize(null = "point",
              p = ben_prop) %>%
* generate(reps = 1, type = "draw")
```

```
## Response: digit (numeric)
## Null Hypothesis: point
## # A tibble: 366 × 2
## # Groups:   replicate [1]
##    digit replicate
##    <fct> <fct>    
##  1 8     1        
##  2 3     1        
##  3 4     1        
##  4 1     1        
##  5 1     1        
##  6 4     1        
##  7 3     1        
##  8 6     1        
##  9 2     1        
## 10 3     1        
## # … with 356 more rows
```
…
.pull-left[

```r
iran %>%
  specify(response = digit) %>%
  hypothesize(null = "point",
              p = ben_prop) %>%
* generate(reps = 1, type = "draw")
```

```
## Response: digit (numeric)
## Null Hypothesis: point
## # A tibble: 366 × 2
## # Groups:   replicate [1]
##    digit replicate
##    <fct> <fct>    
##  1 1     1        
##  2 1     1        
##  3 6     1        
##  4 2     1        
##  5 1     1        
##  6 8     1        
##  7 1     1        
##  8 1     1        
##  9 4     1        
## 10 1     1        
## # … with 356 more rows
```
…
.pull-right[

```r
iran %>%
  specify(response = digit) %>%
  hypothesize(null = "point",
              p = ben_prop) %>%
* generate(reps = 1, type = "draw")
```

```
## Response: digit (numeric)
## Null Hypothesis: point
## # A tibble: 366 × 2
## # Groups:   replicate [1]
##    digit replicate
##    <fct> <fct>    
##  1 1     1        
##  2 1     1        
##  3 2     1        
##  4 6     1        
##  5 3     1        
##  6 8     1        
##  7 1     1        
##  8 1     1        
##  9 4     1        
## 10 1     1        
## # … with 356 more rows
```
…
--

```
## Response: digit (factor)
## Null Hypothesis: point
## # A tibble: 500 × 2
##    replicate  stat
##    <fct>     <dbl>
##  1 1          4.86
##  2 2          1.23
##  3 3          7.49
##  4 4         11.9 
##  5 5          3.55
##  6 6          9.40
##  7 7          4.06
##  8 8          5.57
##  9 9          6.11
## 10 10        14.9 
## # … with 490 more rows
```
…
