Confidence Intervals
…
---
## Pew Data

How much uncertainty do we have in our estimate (64%) of the proportion of Republicans that think Democrats are more close-minded?

--

.pull-left[

```r
pew
```

```
## # A tibble: 4,947 × 2
##    party      closed
##    <chr>      <chr> 
##  1 Republican yes   
##  2 Republican yes   
##  3 Republican yes   
##  4 Republican yes   
##  5 Republican yes   
##  6 Republican yes   
##  7 Republican yes   
##  8 Republican yes   
##  9 Republican yes   
## 10 Republican yes   
## # … with 4,937 more rows
```
…
--

```r
pew %>%
  specify(response = closed, 
          success = "yes") %>%
  generate(reps = 1, type = "bootstrap")
```

--

```
## Response: closed (factor)
## # A tibble: 4,947 × 2
## # Groups:   replicate [1]
##    replicate closed
##        <int> <fct> 
##  1         1 no    
##  2         1 yes   
##  3         1 yes   
##  4         1 no    
##  5         1 no    
##  6         1 yes   
##  7         1 no    
##  8         1 yes   
##  9         1 yes   
## 10         1 no    
## # … with 4,937 more rows
```
…
--

.pull-left[

```r
pew %>%
  specify(response = closed, 
          success = "yes") %>%
  generate(reps = 1, type = "bootstrap")
```

```
## Response: closed (factor)
## # A tibble: 4,947 × 2
## # Groups:   replicate [1]
##    replicate closed
##        <int> <fct> 
##  1         1 no    
##  2         1 yes   
##  3         1 yes   
##  4         1 yes   
##  5         1 yes   
##  6         1 yes   
##  7         1 yes   
##  8         1 yes   
##  9         1 yes   
## 10         1 yes   
## # … with 4,937 more rows
```
…
--

.pull-right[

```r
pew %>%
  specify(response = closed, 
          success = "yes") %>%
  generate(reps = 1, type = "bootstrap")
```

```
## Response: closed (factor)
## # A tibble: 4,947 × 2
## # Groups:   replicate [1]
##    replicate closed
##        <int> <fct> 
##  1         1 no    
##  2         1 no    
##  3         1 no    
##  4         1 yes   
##  5         1 no    
##  6         1 yes   
##  7         1 yes   
##  8         1 yes   
##  9         1 yes   
## 10         1 no    
## # … with 4,937 more rows
```
…
Note the reduction in size of the data frame as we summarize each bootstrap data set with a single statistic.

--

.pull-left[

```r
boot_9
```

```
## Response: closed (factor)
## # A tibble: 44,523 × 2
## # Groups:   replicate [9]
##    replicate closed
##        <int> <fct> 
##  1         1 yes   
##  2         1 yes   
##  3         1 yes   
##  4         1 no    
##  5         1 no    
##  6         1 yes   
##  7         1 no    
##  8         1 yes   
##  9         1 no    
## 10         1 yes   
## # … with 44,513 more rows
```
…
