Inference for Many Means
…
- Standard method to test whether HCB is present in a river is to take samples at middepth.

--
- **Question: is it found at different concentrations at different depths?**

--

.pull-left[

```r
wolf
```

```
## # A tibble: 30 × 3
##    Depth   Aldrin   HCB
##    <chr>    <dbl> <dbl>
##  1 Surface   3.08  3.74
##  2 Surface   3.58  4.61
##  3 Surface   3.81  4   
##  4 Surface   4.31  4.67
##  5 Surface   4.35  4.87
##  6 Surface   4.4   5.12
##  7 Surface   3.67  4.52
##  8 Surface   5.17  5.29
##  9 Surface   5.17  5.74
## 10 Surface   4.35  5.48
## # … with 20 more rows
```
…
```
## Response: HCB (numeric)
## Explanatory: Depth (factor)
## Null Hypothesis: independence
## # A tibble: 1,000 × 2
##    replicate   stat
##        <int>  <dbl>
##  1         1 0.327 
##  2         2 1.00  
##  3         3 0.746 
##  4         4 1.17  
##  5         5 0.0272
##  6         6 0.649 
##  7         7 0.0409
##  8         8 2.43  
##  9         9 0.886 
## 10        10 0.880 
## # … with 990 more rows
```
…
