Inference for One and Two Means
…
---
12) What is our best est. of the mean rating of the condition of People's Park?
--

.panelset[
.panel[.panel-name[Data]

```r
ppk %>%
  select(Q15_1)
```

```
## # A tibble: 1,658 × 1
##    Q15_1
##    <dbl>
##  1     5
##  2     7
##  3     3
##  4    NA
##  5     5
##  6    NA
##  7    NA
##  8     9
##  9     5
## 10     1
## # … with 1,648 more rows
```
…
---
## Creating a new variable
--

```r
ppk <- ppk %>%
  mutate(grad_student = Q1 == 5)
ppk %>%
  select(Q1, grad_student)
```

--

```
## # A tibble: 1,658 × 2
##       Q1 grad_student
##    <dbl> <lgl>       
##  1     4 FALSE       
##  2     3 FALSE       
##  3     5 TRUE        
##  4     3 FALSE       
##  5     5 TRUE        
##  6     5 TRUE        
##  7     5 TRUE        
##  8     3 FALSE       
##  9     5 TRUE        
## 10     2 FALSE       
## # … with 1,648 more rows
```
…
---
What is our best estimate of the diff in mean rating between ugrads and grads?
--

.panelset[
.panel[.panel-name[Data]

```r
ppk %>%
  select(grad_student, Q15_1)
```

```
## # A tibble: 1,658 × 2
##    grad_student Q15_1
##    <lgl>        <dbl>
##  1 FALSE            5
##  2 FALSE            7
##  3 TRUE             3
##  4 FALSE           NA
##  5 TRUE             5
##  6 TRUE            NA
##  7 TRUE            NA
##  8 FALSE            9
##  9 TRUE             5
## 10 FALSE            1
## # … with 1,648 more rows
```
…
```
## Response: Q15_1 (numeric)
## Explanatory: grad_student (factor)
## Null Hypothesis: independence
## # A tibble: 8,568 × 3
## # Groups:   replicate [9]
##    Q15_1 grad_student replicate
##    <dbl> <fct>            <int>
##  1     8 FALSE                1
##  2     5 FALSE                1
##  3     2 TRUE                 1
##  4     1 TRUE                 1
##  5     4 FALSE                1
##  6     2 TRUE                 1
##  7     2 FALSE                1
##  8     3 TRUE                 1
##  9     2 TRUE                 1
## 10    10 FALSE                1
## # … with 8,558 more rows
```
…
```
## Response: Q15_1 (numeric)
## Explanatory: grad_student (factor)
## Null Hypothesis: independence
## # A tibble: 500 × 2
##    replicate    stat
##        <int>   <dbl>
##  1         1  0.0621
##  2         2  0.0331
##  3         3 -0.210 
##  4         4 -0.0536
##  5         5 -0.0305
##  6         6 -0.0247
##  7         7 -0.123 
##  8         8  0.0100
##  9         9  0.155 
## 10        10  0.166 
## # … with 490 more rows
```
…
